[
  {
    "url": "/assets/images/home1.jpeg",
    "title": "Prepare-se com os melhores juristas do Brasil. O <b>único</b> curso recomendado pelo <b>Professor Capanema</b>.",
    "alignment": "right"
  }
]
